#Buraco1.obj
#Sunday, November 08, 2015
#9:09:21 PM
#-------

#Buraco1
#-------
g Buraco1
v 11.63239 -0.2362273 -18.9313
v 9.283829 -0.2018385 -18.91768
v 6.935272 -0.1674497 -18.90405
v 4.586716 -0.1330611 -18.89043
v 2.238144 -0.09867227 -18.8768
v -0.1103973 -0.06428361 -18.86317
v -2.458954 -0.02989483 -18.84955
v -4.807541 0.004493833 -18.83592
v -7.156113 0.03888249 -18.82229
v -9.504669 0.07327121 -18.80865
v -11.85323 0.1076599 -18.79503
v 11.65448 -0.2233704 -15.15868
v 9.305923 -0.1889817 -15.14506
v 6.957352 -0.1545931 -15.13142
v 4.60878 -0.1202043 -15.1178
v 2.260223 -0.08581567 -15.10416
v -0.08833313 -0.05142689 -15.09054
v -2.43689 -0.01703823 -15.07691
v -4.785446 0.01735049 -15.06329
v -7.134003 0.05173922 -15.04965
v -9.482574 0.086128 -15.03603
v -11.83116 0.1205166 -15.0224
v 11.67656 -0.2105137 -11.38604
v 9.328003 -0.176125 -11.37241
v 6.979431 -0.1417364 -11.35878
v 4.630859 -0.1073475 -11.34516
v 2.282303 -0.07295895 -11.33153
v -0.06626892 -0.03857017 -11.3179
v -2.414795 -0.004181385 -11.30428
v -4.763382 0.03020722 -11.29065
v -7.111923 0.06459594 -11.27702
v -9.460495 0.09898472 -11.26339
v -11.80907 0.1333733 -11.24976
v 11.69865 -0.1976571 -7.613411
v 9.350082 -0.1632682 -7.599785
v 7.001511 -0.1288797 -7.586143
v 4.652939 -0.09449077 -7.572525
v 2.304382 -0.06010222 -7.558891
v -0.04417419 -0.02571344 -7.545273
v -2.392731 0.008675218 -7.531639
v -4.741272 0.04306388 -7.518013
v -7.089844 0.07745266 -7.504387
v -9.438431 0.1118413 -7.490761
v -11.78699 0.14623 -7.477127
v 11.72073 -0.1848003 -3.840775
v 9.372162 -0.1504116 -3.827148
v 7.023605 -0.1160228 -3.813522
v 4.675049 -0.08163416 -3.799896
v 2.326462 -0.0472455 -3.786263
v -0.02210999 -0.01285672 -3.772644
v -2.370667 0.02153194 -3.759003
v -4.719208 0.05592072 -3.745384
v -7.06778 0.09030926 -3.73175
v -9.416336 0.124698 -3.718117
v -11.76489 0.1590868 -3.704498
v 11.7428 -0.1719437 -0.06813812
v 9.394241 -0.1375549 -0.05450439
v 7.04567 -0.1031662 -0.0408783
v 4.697113 -0.06877732 -0.0272522
v 2.348557 -0.03438878 -0.0136261
v -1.525879E-05 -1.192093E-07 0
v -2.348572 0.0343886 0.01363373
v -4.697144 0.06877738 0.0272522
v -7.0457 0.103166 0.04088593
v -9.394272 0.1375548 0.05450439
v -11.74281 0.1719435 0.06814575
v 11.76488 -0.1590869 3.704498
v 9.416306 -0.1246982 3.718117
v 7.06778 -0.09030938 3.73175
v 4.719193 -0.05592084 3.745384
v 2.370621 -0.02153206 3.75901
v 0.02206421 0.01285666 3.772636
v -2.326477 0.04724538 3.78627
v -4.675049 0.0816341 3.799889
v -7.023621 0.1160227 3.813522
v -9.372192 0.1504116 3.827141
v -11.72075 0.1848002 3.840775
v 11.78696 -0.1462302 7.477127
v 9.438385 -0.1118414 7.490753
v 7.089844 -0.0774529 7.504387
v 4.741272 -0.04306388 7.518005
v 2.392715 -0.008675337 7.531639
v 0.04415894 0.02571326 7.545273
v -2.304413 0.06010211 7.558891
v -4.652969 0.09449071 7.572517
v -7.001541 0.1288796 7.586151
v -9.350098 0.1632682 7.599777
v -11.69867 0.1976569 7.613411
v 11.80904 -0.1333734 11.24976
v 9.46048 -0.09898472 11.26338
v 7.111908 -0.06459606 11.27702
v 4.763336 -0.03020728 11.29064
v 2.41478 0.004181385 11.30428
v 0.0662384 0.03857023 11.3179
v -2.282318 0.07295877 11.33154
v -4.63089 0.1073474 11.34517
v -6.979446 0.1417363 11.35879
v -9.328018 0.1761249 11.37242
v -11.67659 0.2105135 11.38605
v 11.83112 -0.1205168 15.0224
v 9.482574 -0.086128 15.03603
v 7.134003 -0.05173922 15.04965
v 4.785416 -0.01735044 15.06328
v 2.436859 0.01703805 15.07691
v 0.08830261 0.05142677 15.09053
v -2.260254 0.08581555 15.10417
v -4.60881 0.1202042 15.11781
v -6.957367 0.154593 15.13142
v -9.305939 0.1889815 15.14506
v -11.6545 0.2233703 15.15868
v 11.85321 -0.1076601 18.79504
v 9.504639 -0.07327151 18.80867
v 7.156082 -0.03888249 18.82229
v 4.80751 -0.004493952 18.83592
v 2.458954 0.02989483 18.84954
v 0.1103821 0.06428355 18.86317
v -2.23819 0.09867209 18.8768
v -4.586746 0.1330609 18.89042
v -6.935287 0.1674495 18.90405
v -9.283859 0.2018384 18.91769
v -11.63243 0.2362271 18.93131

vn -0.0150569 -0.9997549 0.01622944
vn -0.0150569 -0.9997549 0.01622944
vn -0.0150569 -0.9997549 0.01622944
vn -0.0150569 -0.9997549 0.01622944
vn -0.0150569 -0.9997549 0.01622944
vn -0.0150569 -0.9997549 0.01622944
vn -0.0150569 -0.9997549 0.01622944
vn -0.0150569 -0.9997549 0.01622944
vn -0.0150569 -0.9997549 0.01622944
vn -0.0150569 -0.9997549 0.01622944
vn -0.0150569 -0.9997549 0.01622944
vn -0.0150569 -0.9997549 0.01622944
vn -0.0150569 -0.9997549 0.01622944
vn -0.0150569 -0.9997549 0.01622944
vn -0.0150569 -0.9997549 0.01622944
vn -0.0150569 -0.9997549 0.01622944
vn -0.0150569 -0.9997549 0.01622944
vn -0.0150569 -0.9997549 0.01622944
vn -0.0150569 -0.9997549 0.01622944
vn -0.0150569 -0.9997549 0.01622944
vn -0.0150569 -0.9997549 0.01622944
vn -0.0150569 -0.9997549 0.01622944
vn -0.0150569 -0.9997549 0.01622944
vn -0.0150569 -0.9997549 0.01622944
vn -0.0150569 -0.9997549 0.01622944
vn -0.0150569 -0.9997549 0.01622944
vn -0.0150569 -0.9997549 0.01622944
vn -0.0150569 -0.9997549 0.01622944
vn -0.0150569 -0.9997549 0.01622944
vn -0.0150569 -0.9997549 0.01622944
vn -0.0150569 -0.9997549 0.01622944
vn -0.0150569 -0.9997549 0.01622944
vn -0.0150569 -0.9997549 0.01622944
vn -0.0150569 -0.9997549 0.01622944
vn -0.0150569 -0.9997549 0.01622944
vn -0.0150569 -0.9997549 0.01622944
vn -0.0150569 -0.9997549 0.01622944
vn -0.0150569 -0.9997549 0.01622944
vn -0.0150569 -0.9997549 0.01622944
vn -0.0150569 -0.9997549 0.01622944
vn -0.0150569 -0.9997549 0.01622944
vn -0.0150569 -0.9997549 0.01622944
vn -0.0150569 -0.9997549 0.01622944
vn -0.0150569 -0.9997549 0.01622944
vn -0.0150569 -0.9997549 0.01622944
vn -0.0150569 -0.9997549 0.01622944
vn -0.0150569 -0.9997549 0.01622944
vn -0.0150569 -0.9997549 0.01622944
vn -0.0150569 -0.9997549 0.01622944
vn -0.0150569 -0.9997549 0.01622944
vn -0.0150569 -0.9997549 0.01622944
vn -0.0150569 -0.9997549 0.01622944
vn -0.0150569 -0.9997549 0.01622944
vn -0.0150569 -0.9997549 0.01622944
vn -0.0150569 -0.9997549 0.01622944
vn -0.0150569 -0.9997549 0.01622944
vn -0.0150569 -0.9997549 0.01622944
vn -0.0150569 -0.9997549 0.01622944
vn -0.0150569 -0.9997549 0.01622944
vn -0.0150569 -0.9997549 0.01622944
vn -0.0150569 -0.9997549 0.01622944
vn -0.0150569 -0.9997549 0.01622944
vn -0.0150569 -0.9997549 0.01622944
vn -0.0150569 -0.9997549 0.01622944
vn -0.0150569 -0.9997549 0.01622944
vn -0.0150569 -0.9997549 0.01622944
vn -0.0150569 -0.9997549 0.01622944
vn -0.0150569 -0.9997549 0.01622944
vn -0.0150569 -0.9997549 0.01622944
vn -0.0150569 -0.9997549 0.01622944
vn -0.0150569 -0.9997549 0.01622944
vn -0.0150569 -0.9997549 0.01622944
vn -0.0150569 -0.9997549 0.01622944
vn -0.0150569 -0.9997549 0.01622944
vn -0.0150569 -0.9997549 0.01622944
vn -0.0150569 -0.9997549 0.01622944
vn -0.0150569 -0.9997549 0.01622944
vn -0.0150569 -0.9997549 0.01622944
vn -0.0150569 -0.9997549 0.01622944
vn -0.0150569 -0.9997549 0.01622944
vn -0.0150569 -0.9997549 0.01622944
vn -0.0150569 -0.9997549 0.01622944
vn -0.0150569 -0.9997549 0.01622944
vn -0.0150569 -0.9997549 0.01622944
vn -0.0150569 -0.9997549 0.01622944
vn -0.0150569 -0.9997549 0.01622944
vn -0.0150569 -0.9997549 0.01622944
vn -0.0150569 -0.9997549 0.01622944
vn -0.0150569 -0.9997549 0.01622944
vn -0.0150569 -0.9997549 0.01622944
vn -0.0150569 -0.9997549 0.01622944
vn -0.0150569 -0.9997549 0.01622944
vn -0.0150569 -0.9997549 0.01622944
vn -0.0150569 -0.9997549 0.01622944
vn -0.0150569 -0.9997549 0.01622944
vn -0.0150569 -0.9997549 0.01622944
vn -0.0150569 -0.9997549 0.01622944
vn -0.0150569 -0.9997549 0.01622944
vn -0.0150569 -0.9997549 0.01622944
vn -0.0150569 -0.9997549 0.01622944
vn -0.0150569 -0.9997549 0.01622944
vn -0.0150569 -0.9997549 0.01622944
vn -0.0150569 -0.9997549 0.01622944
vn -0.0150569 -0.9997549 0.01622944
vn -0.0150569 -0.9997549 0.01622944
vn -0.0150569 -0.9997549 0.01622944
vn -0.0150569 -0.9997549 0.01622944
vn -0.0150569 -0.9997549 0.01622944
vn -0.0150569 -0.9997549 0.01622944
vn -0.0150569 -0.9997549 0.01622944
vn -0.0150569 -0.9997549 0.01622944
vn -0.0150569 -0.9997549 0.01622944
vn -0.0150569 -0.9997549 0.01622944
vn -0.0150569 -0.9997549 0.01622944
vn -0.0150569 -0.9997549 0.01622944
vn -0.0150569 -0.9997549 0.01622944
vn -0.0150569 -0.9997549 0.01622944
vn -0.0150569 -0.9997549 0.01622944
vn -0.0150569 -0.9997549 0.01622944
vn -0.0150569 -0.9997549 0.01622944
vn -0.0150569 -0.9997549 0.01622944

vt 0 0
vt 0.1 0
vt 0.2 0
vt 0.3 0
vt 0.4 0
vt 0.5 0
vt 0.6 0
vt 0.7 0
vt 0.8 0
vt 0.9 0
vt 1 0
vt 0 0.1
vt 0.1 0.1
vt 0.2 0.1
vt 0.3 0.1
vt 0.4 0.1
vt 0.5 0.1
vt 0.6 0.1
vt 0.7 0.1
vt 0.8 0.1
vt 0.9 0.1
vt 1 0.1
vt 0 0.2
vt 0.1 0.2
vt 0.2 0.2
vt 0.3 0.2
vt 0.4 0.2
vt 0.5 0.2
vt 0.6 0.2
vt 0.7 0.2
vt 0.8 0.2
vt 0.9 0.2
vt 1 0.2
vt 0 0.3
vt 0.1 0.3
vt 0.2 0.3
vt 0.3 0.3
vt 0.4 0.3
vt 0.5 0.3
vt 0.6 0.3
vt 0.7 0.3
vt 0.8 0.3
vt 0.9 0.3
vt 1 0.3
vt 0 0.4
vt 0.1 0.4
vt 0.2 0.4
vt 0.3 0.4
vt 0.4 0.4
vt 0.5 0.4
vt 0.6 0.4
vt 0.7 0.4
vt 0.8 0.4
vt 0.9 0.4
vt 1 0.4
vt 0 0.5
vt 0.1 0.5
vt 0.2 0.5
vt 0.3 0.5
vt 0.4 0.5
vt 0.5 0.5
vt 0.6 0.5
vt 0.7 0.5
vt 0.8 0.5
vt 0.9 0.5
vt 1 0.5
vt 0 0.6
vt 0.1 0.6
vt 0.2 0.6
vt 0.3 0.6
vt 0.4 0.6
vt 0.5 0.6
vt 0.6 0.6
vt 0.7 0.6
vt 0.8 0.6
vt 0.9 0.6
vt 1 0.6
vt 0 0.7
vt 0.1 0.7
vt 0.2 0.7
vt 0.3 0.7
vt 0.4 0.7
vt 0.5 0.7
vt 0.6 0.7
vt 0.7 0.7
vt 0.8 0.7
vt 0.9 0.7
vt 1 0.7
vt 0 0.8
vt 0.1 0.8
vt 0.2 0.8
vt 0.3 0.8
vt 0.4 0.8
vt 0.5 0.8
vt 0.6 0.8
vt 0.7 0.8
vt 0.8 0.8
vt 0.9 0.8
vt 1 0.8
vt 0 0.9
vt 0.1 0.9
vt 0.2 0.9
vt 0.3 0.9
vt 0.4 0.9
vt 0.5 0.9
vt 0.6 0.9
vt 0.7 0.9
vt 0.8 0.9
vt 0.9 0.9
vt 1 0.9
vt 0 1
vt 0.1 1
vt 0.2 1
vt 0.3 1
vt 0.4 1
vt 0.5 1
vt 0.6 1
vt 0.7 1
vt 0.8 1
vt 0.9 1
vt 1 1

usemtl black-hole
usemap black-hole
f 1/1/1 13/13/13 2/2/2
f 1/1/1 12/12/12 13/13/13
f 2/2/2 13/13/13 14/14/14
f 2/2/2 14/14/14 3/3/3
f 3/3/3 14/14/14 15/15/15
f 3/3/3 15/15/15 4/4/4
f 4/4/4 15/15/15 16/16/16
f 4/4/4 16/16/16 5/5/5
f 5/5/5 16/16/16 17/17/17
f 5/5/5 17/17/17 6/6/6
f 6/6/6 17/17/17 18/18/18
f 6/6/6 18/18/18 7/7/7
f 7/7/7 18/18/18 19/19/19
f 7/7/7 19/19/19 8/8/8
f 8/8/8 19/19/19 20/20/20
f 8/8/8 20/20/20 9/9/9
f 9/9/9 20/20/20 21/21/21
f 9/9/9 21/21/21 10/10/10
f 10/10/10 21/21/21 22/22/22
f 10/10/10 22/22/22 11/11/11
f 15/15/15 27/27/27 16/16/16
f 16/16/16 28/28/28 17/17/17
f 16/16/16 27/27/27 28/28/28
f 17/17/17 29/29/29 18/18/18
f 17/17/17 28/28/28 29/29/29
f 18/18/18 30/30/30 19/19/19
f 18/18/18 29/29/29 30/30/30
f 19/19/19 31/31/31 20/20/20
f 19/19/19 30/30/30 31/31/31
f 20/20/20 32/32/32 21/21/21
f 20/20/20 31/31/31 32/32/32
f 21/21/21 33/33/33 22/22/22
f 21/21/21 32/32/32 33/33/33
f 27/27/27 39/39/39 28/28/28
f 27/27/27 38/38/38 39/39/39
f 26/26/26 38/38/38 27/27/27
f 15/15/15 26/26/26 27/27/27
f 14/14/14 26/26/26 15/15/15
f 14/14/14 25/25/25 26/26/26
f 13/13/13 25/25/25 14/14/14
f 13/13/13 24/24/24 25/25/25
f 12/12/12 24/24/24 13/13/13
f 12/12/12 23/23/23 24/24/24
f 23/23/23 35/35/35 24/24/24
f 23/23/23 34/34/34 35/35/35
f 24/24/24 36/36/36 25/25/25
f 24/24/24 35/35/35 36/36/36
f 25/25/25 37/37/37 26/26/26
f 25/25/25 36/36/36 37/37/37
f 26/26/26 37/37/37 38/38/38
f 32/32/32 44/44/44 33/33/33
f 34/34/34 46/46/46 35/35/35
f 34/34/34 45/45/45 46/46/46
f 35/35/35 47/47/47 36/36/36
f 35/35/35 46/46/46 47/47/47
f 36/36/36 48/48/48 37/37/37
f 36/36/36 47/47/47 48/48/48
f 37/37/37 48/48/48 49/49/49
f 37/37/37 49/49/49 38/38/38
f 38/38/38 49/49/49 50/50/50
f 38/38/38 50/50/50 39/39/39
f 39/39/39 50/50/50 51/51/51
f 39/39/39 51/51/51 40/40/40
f 28/28/28 39/39/39 40/40/40
f 28/28/28 40/40/40 29/29/29
f 29/29/29 40/40/40 41/41/41
f 29/29/29 41/41/41 30/30/30
f 30/30/30 41/41/41 42/42/42
f 30/30/30 42/42/42 31/31/31
f 31/31/31 42/42/42 43/43/43
f 31/31/31 43/43/43 32/32/32
f 32/32/32 43/43/43 44/44/44
f 40/40/40 52/52/52 41/41/41
f 40/40/40 51/51/51 52/52/52
f 41/41/41 53/53/53 42/42/42
f 41/41/41 52/52/52 53/53/53
f 42/42/42 54/54/54 43/43/43
f 42/42/42 53/53/53 54/54/54
f 43/43/43 55/55/55 44/44/44
f 43/43/43 54/54/54 55/55/55
f 51/51/51 63/63/63 52/52/52
f 51/51/51 62/62/62 63/63/63
f 52/52/52 64/64/64 53/53/53
f 52/52/52 63/63/63 64/64/64
f 53/53/53 65/65/65 54/54/54
f 53/53/53 64/64/64 65/65/65
f 54/54/54 66/66/66 55/55/55
f 54/54/54 65/65/65 66/66/66
f 62/62/62 74/74/74 63/63/63
f 62/62/62 73/73/73 74/74/74
f 61/61/61 73/73/73 62/62/62
f 50/50/50 61/61/61 62/62/62
f 49/49/49 61/61/61 50/50/50
f 49/49/49 60/60/60 61/61/61
f 48/48/48 60/60/60 49/49/49
f 48/48/48 59/59/59 60/60/60
f 47/47/47 59/59/59 48/48/48
f 47/47/47 58/58/58 59/59/59
f 46/46/46 58/58/58 47/47/47
f 46/46/46 57/57/57 58/58/58
f 45/45/45 57/57/57 46/46/46
f 45/45/45 56/56/56 57/57/57
f 56/56/56 68/68/68 57/57/57
f 56/56/56 67/67/67 68/68/68
f 57/57/57 69/69/69 58/58/58
f 57/57/57 68/68/68 69/69/69
f 58/58/58 70/70/70 59/59/59
f 58/58/58 69/69/69 70/70/70
f 59/59/59 71/71/71 60/60/60
f 59/59/59 70/70/70 71/71/71
f 60/60/60 71/71/71 72/72/72
f 60/60/60 72/72/72 61/61/61
f 61/61/61 72/72/72 73/73/73
f 67/67/67 79/79/79 68/68/68
f 67/67/67 78/78/78 79/79/79
f 68/68/68 80/80/80 69/69/69
f 68/68/68 79/79/79 80/80/80
f 69/69/69 81/81/81 70/70/70
f 69/69/69 80/80/80 81/81/81
f 70/70/70 82/82/82 71/71/71
f 70/70/70 81/81/81 82/82/82
f 71/71/71 83/83/83 72/72/72
f 71/71/71 82/82/82 83/83/83
f 72/72/72 84/84/84 73/73/73
f 72/72/72 83/83/83 84/84/84
f 73/73/73 84/84/84 85/85/85
f 73/73/73 85/85/85 74/74/74
f 74/74/74 85/85/85 86/86/86
f 74/74/74 86/86/86 75/75/75
f 63/63/63 74/74/74 75/75/75
f 63/63/63 75/75/75 64/64/64
f 64/64/64 75/75/75 76/76/76
f 64/64/64 76/76/76 65/65/65
f 65/65/65 76/76/76 77/77/77
f 65/65/65 77/77/77 66/66/66
f 75/75/75 87/87/87 76/76/76
f 75/75/75 86/86/86 87/87/87
f 76/76/76 88/88/88 77/77/77
f 76/76/76 87/87/87 88/88/88
f 81/81/81 93/93/93 82/82/82
f 82/82/82 94/94/94 83/83/83
f 82/82/82 93/93/93 94/94/94
f 84/84/84 96/96/96 85/85/85
f 85/85/85 97/97/97 86/86/86
f 85/85/85 96/96/96 97/97/97
f 86/86/86 98/98/98 87/87/87
f 86/86/86 97/97/97 98/98/98
f 87/87/87 99/99/99 88/88/88
f 87/87/87 98/98/98 99/99/99
f 93/93/93 105/105/105 94/94/94
f 93/93/93 104/104/104 105/105/105
f 92/92/92 104/104/104 93/93/93
f 81/81/81 92/92/92 93/93/93
f 80/80/80 92/92/92 81/81/81
f 80/80/80 91/91/91 92/92/92
f 79/79/79 91/91/91 80/80/80
f 79/79/79 90/90/90 91/91/91
f 78/78/78 90/90/90 79/79/79
f 78/78/78 89/89/89 90/90/90
f 89/89/89 101/101/101 90/90/90
f 89/89/89 100/100/100 101/101/101
f 90/90/90 102/102/102 91/91/91
f 90/90/90 101/101/101 102/102/102
f 91/91/91 103/103/103 92/92/92
f 91/91/91 102/102/102 103/103/103
f 92/92/92 103/103/103 104/104/104
f 100/100/100 112/112/112 101/101/101
f 100/100/100 111/111/111 112/112/112
f 101/101/101 113/113/113 102/102/102
f 101/101/101 112/112/112 113/113/113
f 102/102/102 114/114/114 103/103/103
f 102/102/102 113/113/113 114/114/114
f 103/103/103 114/114/114 115/115/115
f 103/103/103 115/115/115 104/104/104
f 104/104/104 115/115/115 116/116/116
f 104/104/104 116/116/116 105/105/105
f 105/105/105 116/116/116 117/117/117
f 105/105/105 117/117/117 106/106/106
f 94/94/94 105/105/105 106/106/106
f 94/94/94 106/106/106 95/95/95
f 83/83/83 94/94/94 95/95/95
f 83/83/83 95/95/95 84/84/84
f 84/84/84 95/95/95 96/96/96
f 95/95/95 107/107/107 96/96/96
f 95/95/95 106/106/106 107/107/107
f 96/96/96 107/107/107 108/108/108
f 96/96/96 108/108/108 97/97/97
f 97/97/97 108/108/108 109/109/109
f 97/97/97 109/109/109 98/98/98
f 98/98/98 109/109/109 110/110/110
f 98/98/98 110/110/110 99/99/99
f 106/106/106 118/118/118 107/107/107
f 106/106/106 117/117/117 118/118/118
f 107/107/107 119/119/119 108/108/108
f 107/107/107 118/118/118 119/119/119
f 108/108/108 120/120/120 109/109/109
f 108/108/108 119/119/119 120/120/120
f 109/109/109 121/121/121 110/110/110
f 109/109/109 120/120/120 121/121/121
f 50/50/50 62/62/62 51/51/51
